%YAML 1.1
%TAG !u! tag:unity3d.com,2011:
--- !u!1001 &5345570287854340726
PrefabInstance:
  m_ObjectHideFlags: 0
  serializedVersion: 2
  m_Modification:
    m_TransformParent: {fileID: 0}
    m_Modifications:
    - target: {fileID: -7312088185487796630, guid: db9afc300892285409a74fb59160439b,
        type: 3}
      propertyPath: m_SpriteTilingProperty.pivot.x
      value: 0.4876268
      objectReference: {fileID: 0}
    - target: {fileID: -7312088185487796630, guid: db9afc300892285409a74fb59160439b,
        type: 3}
      propertyPath: m_SpriteTilingProperty.pivot.y
      value: 0.5791882
      objectReference: {fileID: 0}
    - target: {fileID: -7312088185487796630, guid: db9afc300892285409a74fb59160439b,
        type: 3}
      propertyPath: m_SpriteTilingProperty.oldSize.x
      value: 2
      objectReference: {fileID: 0}
    - target: {fileID: -7312088185487796630, guid: db9afc300892285409a74fb59160439b,
        type: 3}
      propertyPath: m_SpriteTilingProperty.oldSize.y
      value: 1
      objectReference: {fileID: 0}
    - target: {fileID: -7312088185487796630, guid: db9afc300892285409a74fb59160439b,
        type: 3}
      propertyPath: m_Offset.y
      value: -0.095311046
      objectReference: {fileID: 0}
    - target: {fileID: -7312088185487796630, guid: db9afc300892285409a74fb59160439b,
        type: 3}
      propertyPath: m_Size.y
      value: 0.7540693
      objectReference: {fileID: 0}
    - target: {fileID: -7312088185487796630, guid: db9afc300892285409a74fb59160439b,
        type: 3}
      propertyPath: m_Offset.x
      value: 0.48274773
      objectReference: {fileID: 0}
    - target: {fileID: -7312088185487796630, guid: db9afc300892285409a74fb59160439b,
        type: 3}
      propertyPath: m_Size.x
      value: 0.812521
      objectReference: {fileID: 0}
    - target: {fileID: 956815757196842132, guid: db9afc300892285409a74fb59160439b,
        type: 3}
      propertyPath: m_Sprite
      value: 
      objectReference: {fileID: 21300000, guid: 9dec75fa5a7036648a503bf2264a797f,
        type: 3}
    - target: {fileID: 1128696289368979608, guid: db9afc300892285409a74fb59160439b,
        type: 3}
      propertyPath: m_Name
      value: HouseRight2
      objectReference: {fileID: 0}
    - target: {fileID: 5910845955268421530, guid: db9afc300892285409a74fb59160439b,
        type: 3}
      propertyPath: m_LocalPosition.x
      value: 0
      objectReference: {fileID: 0}
    - target: {fileID: 5910845955268421530, guid: db9afc300892285409a74fb59160439b,
        type: 3}
      propertyPath: m_LocalPosition.y
      value: 0
      objectReference: {fileID: 0}
    - target: {fileID: 5910845955268421530, guid: db9afc300892285409a74fb59160439b,
        type: 3}
      propertyPath: m_LocalPosition.z
      value: 0
      objectReference: {fileID: 0}
    - target: {fileID: 5910845955268421530, guid: db9afc300892285409a74fb59160439b,
        type: 3}
      propertyPath: m_LocalRotation.x
      value: 0
      objectReference: {fileID: 0}
    - target: {fileID: 5910845955268421530, guid: db9afc300892285409a74fb59160439b,
        type: 3}
      propertyPath: m_LocalRotation.y
      value: 0
      objectReference: {fileID: 0}
    - target: {fileID: 5910845955268421530, guid: db9afc300892285409a74fb59160439b,
        type: 3}
      propertyPath: m_LocalRotation.z
      value: 0
      objectReference: {fileID: 0}
    - target: {fileID: 5910845955268421530, guid: db9afc300892285409a74fb59160439b,
        type: 3}
      propertyPath: m_LocalRotation.w
      value: 1
      objectReference: {fileID: 0}
    - target: {fileID: 5910845955268421530, guid: db9afc300892285409a74fb59160439b,
        type: 3}
      propertyPath: m_RootOrder
      value: 0
      objectReference: {fileID: 0}
    - target: {fileID: 5910845955268421530, guid: db9afc300892285409a74fb59160439b,
        type: 3}
      propertyPath: m_LocalEulerAnglesHint.x
      value: 0
      objectReference: {fileID: 0}
    - target: {fileID: 5910845955268421530, guid: db9afc300892285409a74fb59160439b,
        type: 3}
      propertyPath: m_LocalEulerAnglesHint.y
      value: 0
      objectReference: {fileID: 0}
    - target: {fileID: 5910845955268421530, guid: db9afc300892285409a74fb59160439b,
        type: 3}
      propertyPath: m_LocalEulerAnglesHint.z
      value: 0
      objectReference: {fileID: 0}
    m_RemovedComponents: []
  m_SourcePrefab: {fileID: 100100000, guid: db9afc300892285409a74fb59160439b, type: 3}
